[
  {
    "type": "philipsHueBridge",
    "things": [
      {
        "id": "PhilipsHueBridge",
        "options": {
          "username": "AFd6qhG6Vh73HO1F2Pq6YPljKVVWgcLEYksdWLry",
          "ip": "192.168.1.67"
        }
      }
    ]
  },
  {
    "type": "GrovePiSensors",
    "things": [
      {
        "id": "GrovePiSensors",
        "options": {
          "detectionDistance": 20,
          "sensorList": [
            { "type": "DHTDigital", "pin": 3, "watchInterval": 100000 },
            { "type": "UltrasonicDigital", "pin": 4, "watchInterval": 2000 }
          ]
        }
      }
    ]
  }
]
